{
  "gitbook": "3.x.x",
  "root": "./",
  "plugins": ["edit-link", "theme-vuejs@git+https://github.com/pearofducks/gitbook-plugin-theme-vuejs.git", "-fontsettings", "github", "advanced-emoji@0.2.1"],
  "pluginsConfig": {
    "edit-link": {
      "base": "https://github.com/griest024/vue-component-proxy/tree/master/gitbook",
      "label": "Edit This Page"
    },
    "github": {
      "url": "https://github.com/griest024/vue-component-proxy/"
    }
  },
  "links": {
    "sharing": {
      "facebook": false,
      "twitter": false
    }
  }
}
